GFORTRAN module version '6' created from def.f90 on Fri Apr 25 18:47:11 2014
MD5:534d88e19185b66a06b14b09ee438752 -- If you edit this, you'll get what you deserve.

(() () () () () () () () () () () () () () () () () () () () () () () ()
() () ())

()

()

()

()

()

(2 '__convert_i4_r4' '(intrinsic)' '__convert_i4_r4' 1 ((PROCEDURE
UNKNOWN-INTENT UNKNOWN-PROC UNKNOWN UNKNOWN 0 0 FUNCTION ELEMENTAL PURE)
(REAL 4 0 0 REAL ()) 0 0 () () 2 () () () 0 0)
3 'bs' 'def' 'bs' 1 ((PARAMETER UNKNOWN-INTENT UNKNOWN-PROC UNKNOWN
IMPLICIT-SAVE 0 0) (INTEGER 4 0 0 INTEGER ()) 0 0 () (CONSTANT (INTEGER
4 0 0 INTEGER ()) 0 '262144') () 0 () () () 0 0)
4 'def' 'def' 'def' 1 ((MODULE UNKNOWN-INTENT UNKNOWN-PROC UNKNOWN
UNKNOWN 0 0) (UNKNOWN 0 0 0 UNKNOWN ()) 0 0 () () 0 () () () 0 0)
5 'dt' 'def' 'dt' 1 ((PARAMETER UNKNOWN-INTENT UNKNOWN-PROC UNKNOWN
IMPLICIT-SAVE 0 0) (REAL 4 0 0 REAL ()) 0 0 () (CONSTANT (REAL 4 0 0
REAL ()) 0 '0.83126f0@-2') () 0 () () () 0 0)
6 'dtl' 'def' 'dtl' 1 ((PARAMETER UNKNOWN-INTENT UNKNOWN-PROC UNKNOWN
IMPLICIT-SAVE 0 0) (REAL 4 0 0 REAL ()) 0 0 () (CONSTANT (REAL 4 0 0
REAL ()) 0 '0.c49ba60@-2') () 0 () () () 0 0)
7 'dts' 'def' 'dts' 1 ((PARAMETER UNKNOWN-INTENT UNKNOWN-PROC UNKNOWN
IMPLICIT-SAVE 0 0) (REAL 4 0 0 REAL ()) 0 0 () (CONSTANT (REAL 4 0 0
REAL ()) 0 '0.4189378@-2') () 0 () () () 0 0)
8 'dx' 'def' 'dx' 1 ((PARAMETER UNKNOWN-INTENT UNKNOWN-PROC UNKNOWN
IMPLICIT-SAVE 0 0) (REAL 4 0 0 REAL ()) 0 0 () (CONSTANT (REAL 4 0 0
REAL ()) 0 '0.1921fb6@-1') () 0 () () () 0 0)
9 'dy' 'def' 'dy' 1 ((PARAMETER UNKNOWN-INTENT UNKNOWN-PROC UNKNOWN
IMPLICIT-SAVE 0 0) (REAL 4 0 0 REAL ()) 0 0 () (CONSTANT (REAL 4 0 0
REAL ()) 0 '0.1921fb6@-1') () 0 () () () 0 0)
10 'dy2' 'def' 'dy2' 1 ((PARAMETER UNKNOWN-INTENT UNKNOWN-PROC UNKNOWN
IMPLICIT-SAVE 0 0) (REAL 4 0 0 REAL ()) 0 0 () (CONSTANT (REAL 4 0 0
REAL ()) 0 '0.277a79c@-3') () 0 () () () 0 0)
11 'g' 'def' 'g' 1 ((PARAMETER UNKNOWN-INTENT UNKNOWN-PROC UNKNOWN
IMPLICIT-SAVE 0 0) (REAL 4 0 0 REAL ()) 0 0 () (CONSTANT (REAL 4 0 0
REAL ()) 0 '0.9cf5c30@1') () 0 () () () 0 0)
12 'hyper' 'def' 'hyper' 1 ((PARAMETER UNKNOWN-INTENT UNKNOWN-PROC
UNKNOWN IMPLICIT-SAVE 0 0) (REAL 4 0 0 REAL ()) 0 0 () (CONSTANT (REAL 4
0 0 REAL ()) 0 '0.1000000@1') () 0 () () () 0 0)
13 'ierr' 'def' 'ierr' 1 ((VARIABLE UNKNOWN-INTENT UNKNOWN-PROC UNKNOWN
IMPLICIT-SAVE 0 0) (INTEGER 4 0 0 INTEGER ()) 0 0 () () 0 () () () 0 0)
14 'ii' 'def' 'ii' 1 ((PARAMETER UNKNOWN-INTENT UNKNOWN-PROC UNKNOWN
IMPLICIT-SAVE 0 0) (COMPLEX 4 0 0 COMPLEX ()) 0 0 () (CONSTANT (COMPLEX
4 0 0 COMPLEX ()) 0 '0.0000000@0' '0.1000000@1') () 0 () () () 0 0)
15 'ind' 'def' 'ind' 1 ((VARIABLE UNKNOWN-INTENT UNKNOWN-PROC UNKNOWN
IMPLICIT-SAVE 0 0) (INTEGER 4 0 0 INTEGER ()) 0 0 () () 0 () () () 0 0)
16 'kappa' 'def' 'kappa' 1 ((PARAMETER UNKNOWN-INTENT UNKNOWN-PROC
UNKNOWN IMPLICIT-SAVE 0 0) (REAL 4 0 0 REAL ()) 0 0 () (CONSTANT (REAL 4
0 0 REAL ()) 0 '0.4000000@-2') () 0 () () () 0 0)
17 'lx' 'def' 'lx' 1 ((PARAMETER UNKNOWN-INTENT UNKNOWN-PROC UNKNOWN
IMPLICIT-SAVE 0 0) (REAL 4 0 0 REAL ()) 0 0 () (CONSTANT (REAL 4 0 0
REAL ()) 0 '0.6487ed8@1') () 0 () () () 0 0)
18 'ly' 'def' 'ly' 1 ((PARAMETER UNKNOWN-INTENT UNKNOWN-PROC UNKNOWN
IMPLICIT-SAVE 0 0) (REAL 4 0 0 REAL ()) 0 0 () (CONSTANT (REAL 4 0 0
REAL ()) 0 '0.6487ed8@1') () 0 () () () 0 0)
19 'n' 'def' 'n' 1 ((PARAMETER UNKNOWN-INTENT UNKNOWN-PROC UNKNOWN
IMPLICIT-SAVE 0 0) (INTEGER 4 0 0 INTEGER ()) 0 0 () (CONSTANT (INTEGER
4 0 0 INTEGER ()) 0 '1024') () 0 () () () 0 0)
20 'ncid' 'def' 'ncid' 1 ((VARIABLE UNKNOWN-INTENT UNKNOWN-PROC UNKNOWN
IMPLICIT-SAVE 0 0) (INTEGER 4 0 0 INTEGER ()) 0 0 () () 0 () () () 0 0)
21 'ni' 'def' 'ni' 1 ((PARAMETER UNKNOWN-INTENT UNKNOWN-PROC UNKNOWN
IMPLICIT-SAVE 0 0) (REAL 4 0 0 REAL ()) 0 0 () (CONSTANT (REAL 4 0 0
REAL ()) 0 '0.4000000@-2') () 0 () () () 0 0)
22 'nproc' 'def' 'nproc' 1 ((VARIABLE UNKNOWN-INTENT UNKNOWN-PROC
UNKNOWN IMPLICIT-SAVE 0 0) (INTEGER 4 0 0 INTEGER ()) 0 0 () () 0 () ()
() 0 0)
23 'nt' 'def' 'nt' 1 ((PARAMETER UNKNOWN-INTENT UNKNOWN-PROC UNKNOWN
IMPLICIT-SAVE 0 0) (INTEGER 4 0 0 INTEGER ()) 0 0 () (CONSTANT (INTEGER
4 0 0 INTEGER ()) 0 '2000') () 0 () () () 0 0)
24 'pi' 'def' 'pi' 1 ((PARAMETER UNKNOWN-INTENT UNKNOWN-PROC UNKNOWN
IMPLICIT-SAVE 0 0) (REAL 4 0 0 REAL ()) 0 0 () (CONSTANT (REAL 4 0 0
REAL ()) 0 '0.3243f6c@1') () 0 () () () 0 0)
25 'plot_freq' 'def' 'plot_freq' 1 ((VARIABLE UNKNOWN-INTENT
UNKNOWN-PROC UNKNOWN IMPLICIT-SAVE 0 0) (INTEGER 4 0 0 INTEGER ()) 0 0 ()
() 0 () () () 0 0)
26 'rank' 'def' 'rank' 1 ((VARIABLE UNKNOWN-INTENT UNKNOWN-PROC UNKNOWN
IMPLICIT-SAVE 0 0) (INTEGER 4 0 0 INTEGER ()) 0 0 () () 0 () () () 0 0)
27 're' 'def' 're' 1 ((PARAMETER UNKNOWN-INTENT UNKNOWN-PROC UNKNOWN
IMPLICIT-SAVE 0 0) (REAL 4 0 0 REAL ()) 0 0 () (CONSTANT (REAL 4 0 0
REAL ()) 0 '0.4000000@3') () 0 () () () 0 0)
28 'root' 'def' 'root' 1 ((PARAMETER UNKNOWN-INTENT UNKNOWN-PROC UNKNOWN
IMPLICIT-SAVE 0 0) (INTEGER 4 0 0 INTEGER ()) 0 0 () (CONSTANT (INTEGER
4 0 0 INTEGER ()) 0 '0') () 0 () () () 0 0)
29 'run_type' 'def' 'run_type' 1 ((VARIABLE UNKNOWN-INTENT UNKNOWN-PROC
UNKNOWN IMPLICIT-SAVE 0 0) (CHARACTER 1 0 0 CHARACTER ((CONSTANT (
INTEGER 4 0 0 INTEGER ()) 0 '4'))) 0 0 () () 0 () () () 0 0)
30 't' 'def' 't' 1 ((PARAMETER UNKNOWN-INTENT UNKNOWN-PROC UNKNOWN
IMPLICIT-SAVE 0 0) (REAL 4 0 0 REAL ()) 0 0 () (CONSTANT (REAL 4 0 0
REAL ()) 0 '0.a000000@1') () 0 () () () 0 0)
31 'ta' 'def' 'ta' 1 ((PARAMETER UNKNOWN-INTENT UNKNOWN-PROC UNKNOWN
IMPLICIT-SAVE 0 0) (REAL 4 0 0 REAL ()) 0 0 () (CONSTANT (REAL 4 0 0
REAL ()) 0 '0.1000000@1') () 0 () () () 0 0)
32 'tb' 'def' 'tb' 1 ((PARAMETER UNKNOWN-INTENT UNKNOWN-PROC UNKNOWN
IMPLICIT-SAVE 0 0) (REAL 4 0 0 REAL ()) 0 0 () (CONSTANT (REAL 4 0 0
REAL ()) 0 '0.1000000@1') () 0 () () () 0 0)
33 'telapsed' 'def' 'telapsed' 1 ((VARIABLE UNKNOWN-INTENT UNKNOWN-PROC
UNKNOWN IMPLICIT-SAVE 0 0) (REAL 4 0 0 REAL ()) 0 0 () () 0 () () () 0 0)
34 'tfinish' 'def' 'tfinish' 1 ((VARIABLE UNKNOWN-INTENT UNKNOWN-PROC
UNKNOWN IMPLICIT-SAVE 0 0) (REAL 4 0 0 REAL ()) 0 0 () () 0 () () () 0 0)
35 'theta' 'def' 'theta' 1 ((PARAMETER UNKNOWN-INTENT UNKNOWN-PROC
UNKNOWN IMPLICIT-SAVE 0 0) (REAL 4 0 0 REAL ()) 0 0 () (CONSTANT (REAL 4
0 0 REAL ()) 0 '0.8000000@0') () 0 () () () 0 0)
36 'tstart' 'def' 'tstart' 1 ((VARIABLE UNKNOWN-INTENT UNKNOWN-PROC
UNKNOWN IMPLICIT-SAVE 0 0) (REAL 4 0 0 REAL ()) 0 0 () () 0 () () () 0 0)
37 'tt' 'def' 'tt' 1 ((VARIABLE UNKNOWN-INTENT UNKNOWN-PROC UNKNOWN
IMPLICIT-SAVE 0 0) (INTEGER 4 0 0 INTEGER ()) 0 0 () () 0 () () () 0 0)
38 'varid' 'def' 'varid' 1 ((VARIABLE UNKNOWN-INTENT UNKNOWN-PROC
UNKNOWN IMPLICIT-SAVE 0 0) (INTEGER 4 0 0 INTEGER ()) 0 0 () () 0 () ()
() 0 0)
)

('__convert_i4_r4' 0 2 'bs' 0 3 'def' 0 4 'dt' 0 5 'dtl' 0 6 'dts' 0 7
'dx' 0 8 'dy' 0 9 'dy2' 0 10 'g' 0 11 'hyper' 0 12 'ierr' 0 13 'ii' 0 14
'ind' 0 15 'kappa' 0 16 'lx' 0 17 'ly' 0 18 'n' 0 19 'ncid' 0 20 'ni' 0
21 'nproc' 0 22 'nt' 0 23 'pi' 0 24 'plot_freq' 0 25 'rank' 0 26 're' 0
27 'root' 0 28 'run_type' 0 29 't' 0 30 'ta' 0 31 'tb' 0 32 'telapsed' 0
33 'tfinish' 0 34 'theta' 0 35 'tstart' 0 36 'tt' 0 37 'varid' 0 38)
